SEDOL_20180511_3
TableName	Actflag	Created	Changed	SedolId	SecID	ISIN	CntryCD	Sedol	Defunct	RcntryCD
SEDOL	U	2010/02/24	2018/05/11	548117	1801281	US63859VAU52	ZZ	B619N64	F	ZZ
SEDOL	U	2010/02/24	2018/05/11	548117	1801281	US63859VAU52	ZZ	B619N64	F	ZZ
SEDOL	U	2010/04/23	2018/05/11	567983	1886604	US896292AG42	ZZ	B1XFJN4	F	US
SEDOL	U	2011/09/10	2018/05/11	1211566	3056949	US92769XAF24	ZZ	B4658M4	F	US
SEDOL	U	2011/09/10	2018/05/11	1211566	3056949	US92769XAF24	ZZ	B4658M4	F	US
SEDOL	I	2018/05/11	2018/05/11	1937556	5529548	US404280BS77	ZZ	BF108N2	F	US
SEDOL	I	2018/05/11	2018/05/11	1937560	5529587	US404280BR94	ZZ	BF108W1	F	GB
SEDOL	I	2018/05/11	2018/05/11	1937564	5529582	US404280BQ12	ZZ	BD05NZ1	F	GB
ENDOFFILE
