EXCHG_20180511_3
TableName	Actflag	Created	Changed	ISIN	SecID	ExchgCD	ExchgName	CntryCD	WklyDayOff1	WklyDayOff2	MIC	ExchgID
EXCHG	U	2001/05/11	2003/12/17	US404280BQ12	5529582	USNYSE	New York Stock Exchange	US	SAT	SUN	XNYS	93
EXCHG	U	2001/05/11	2003/12/17	US404280BS77	5529548	USNYSE	New York Stock Exchange	US	SAT	SUN	XNYS	93
EXCHG	U	2001/05/11	2003/12/17	US404280BR94	5529587	USNYSE	New York Stock Exchange	US	SAT	SUN	XNYS	93
ENDOFFILE
