BSCHG_20180511_3
TableName	Actflag	Created	Changed	BschgID	SecID	ISIN	NotificationDate	OldBondType	NewBondType	OldCurenCD	NewCurenCD	OldPIU	NewPIU	OldInterestBasis	NewInterestBasis	Eventtype	OldInterestCurrency	NewInterestCurrency	OldMaturityCurrency	NewMaturityCurrency	OldIntBusDayConv	NewIntBusDayConv	OldMatBusDayConv	NewMatBusDayConv	Notes
BSCHG	I	2018/05/11	2018/05/11	262343	5529638	US6740013007	2018/05/10	PRF	PRF	USD	USD	P	P	UNKNOWN	FXD	CORR	USD	USD	USD	USD	FBD	FBD	FBD	FBD	
BSCHG	I	2018/05/11	2018/05/11	262343	5529638	US6740013007	2018/05/10	PRF	PRF	USD	USD	P	P	UNKNOWN	FXD	CORR	USD	USD	USD	USD	FBD	FBD	FBD	FBD	
BSCHG	I	2018/05/11	2018/05/11	262345	5529548	US404280BS77	2018/05/10	NT	NT	USD	USD			FXD	FXDFR	CORR	USD	USD	USD	USD					
BSCHG	I	2018/05/11	2018/05/11	262345	5529548	US404280BS77	2018/05/10	NT	NT	USD	USD			FXD	FXDFR	CORR	USD	USD	USD	USD					
ENDOFFILE
